<?xml version="1.0" encoding="UTF-8"?>
<svg width="170px" height="100px" viewBox="0 0 170 100" version="1.1" xmlns="http://www.w3.org/2000/svg" xmlns:xlink="http://www.w3.org/1999/xlink">
    <!-- Generator: Sketch 44 (41411) - http://www.bohemiancoding.com/sketch -->
    <title>enterprise-pingan--gray</title>
    <desc>Created with Sketch.</desc>
    <defs>
        <polygon id="path-1" points="0.051036766 48 114.290032 48 114.290032 0.476571429 0.051036766 0.476571429"></polygon>
    </defs>
    <g id="______Slice" stroke="none" stroke-width="1" fill="none" fill-rule="evenodd">
        <g id="about" transform="translate(-745.000000, -3641.000000)">
            <g id="pingan_color" transform="translate(771.000000, 3667.000000)">
                <g id="Group-4">
                    <mask id="mask-2" fill="white">
                        <use xlink:href="#path-1"></use>
                    </mask>
                    <g id="Clip-2"></g>
                    <path d="M51.0461227,13.7588571 L48.2195365,13.7588571 L48.2195365,14.8688571 L45.4184687,14.8688571 L45.4184687,12.3822857 L50.2405924,12.3822857 L50.2405924,10.0337143 L45.4184687,10.0337143 L45.4184687,8.31942857 L51.0461227,8.31942857 L51.0461227,5.76 L36.1246736,5.76 L36.1246736,8.31942857 L41.7523276,8.31942857 L41.7523276,10.0337143 L36.9327557,10.0337143 L36.9327557,12.3822857 L41.7523276,12.3822857 L41.7523276,14.8688571 L36.1246736,14.8688571 L36.1246736,17.418 L51.0461227,17.418 L51.0461227,13.7588571 Z M23.8860571,3.55885714 L15.5109238,3.55885714 L15.5109238,1.03542857 C15.5109238,0.769714286 15.2999718,0.558857143 15.0354313,0.558857143 L11.6397851,0.558857143 C11.378647,0.558857143 11.1642926,0.769714286 11.1642926,1.03542857 L11.1642926,3.55885714 L2.79000987,3.55885714 C1.24955015,3.55885714 0,4.81542857 0,6.36514286 L0,15.5554286 C0,17.1068571 1.24955015,18.3634286 2.79000987,18.3634286 L11.1642926,18.3634286 L11.1642926,22.3251429 C11.1642926,22.5917143 11.378647,22.8111429 11.6397851,22.8111429 L15.0354313,22.8111429 C15.2999718,22.8111429 15.5109238,22.5917143 15.5109238,22.3251429 L15.5109238,18.3634286 L23.8860571,18.3634286 C25.4290686,18.3634286 26.6811706,17.1068571 26.6811706,15.5554286 L26.6811706,6.36514286 C26.6811706,4.81542857 25.4290686,3.55885714 23.8860571,3.55885714 Z M3.94173956,15.2537143 L11.1642926,15.2537143 L11.1642926,6.66857143 L3.94173956,6.66857143 L3.94173956,15.2537143 Z M15.5109238,15.2537143 L22.735178,15.2537143 L22.735178,6.66857143 L15.5109238,6.66857143 L15.5109238,15.2537143 Z M88.6721278,6.66857143 L90.8956296,6.66857143 C91.1567677,6.66857143 91.3711221,6.45685714 91.3711221,6.19028571 L91.3711221,4.79657143 L110.944572,4.79657143 L110.944572,6.19028571 C110.944572,6.45685714 111.154674,6.66857143 111.417513,6.66857143 L113.640164,6.66857143 C113.903004,6.66857143 114.115657,6.45685714 114.115657,6.19028571 L114.115657,4.58571429 C114.115657,3.21857143 113.017516,2.118 111.66334,2.118 L103.230365,2.118 L103.230365,0.953142857 C103.230365,0.686571429 103.017712,0.476571429 102.754873,0.476571429 L99.5565688,0.476571429 C99.2954307,0.476571429 99.0810762,0.686571429 99.0810762,0.953142857 L99.0810762,2.118 L90.6481013,2.118 C89.2939258,2.118 88.1966353,3.21857143 88.1966353,4.58571429 L88.1966353,6.19028571 C88.1966353,6.45685714 88.4092885,6.66857143 88.6721278,6.66857143 Z M80.0282009,6.34714286 C79.6420227,6.34714286 79.3451588,6.54857143 79.22182,6.79628571 L76.0201135,13.08 C75.8942228,13.3182857 76.0490344,13.5205714 76.2957121,13.5205714 L79.5101777,13.5205714 C79.8955053,13.5205714 80.1932198,13.3182857 80.3216623,13.08 L83.5182651,6.79628571 C83.6441558,6.54857143 83.4901948,6.34714286 83.2426665,6.34714286 L80.0282009,6.34714286 Z M53.8939743,1.28314286 L33.2776726,1.28314286 C31.7346611,1.28314286 30.4859615,2.53971429 30.4859615,4.09114286 L30.4859615,19.3722857 C30.4859615,20.922 31.7346611,22.1785714 33.2776726,22.1785714 L53.8939743,22.1785714 C55.4369858,22.1785714 56.6848347,20.922 56.6848347,19.3722857 L56.6848347,4.09114286 C56.6848347,2.53971429 55.4369858,1.28314286 53.8939743,1.28314286 Z M34.2099442,19.1982857 L52.9625533,19.1982857 L52.9625533,4.044 L34.2099442,4.044 L34.2099442,19.1982857 Z M113.811988,8.80457143 L109.716288,8.80457143 L109.713736,7.03457143 C109.713736,6.76028571 109.495128,6.53914286 109.224633,6.53914286 L106.432072,6.53914286 C106.163278,6.53914286 105.942969,6.76028571 105.942969,7.03457143 L105.942969,8.80457143 L96.3744264,8.80457143 L96.3744264,7.03457143 C96.3744264,6.76028571 96.1524165,6.53914286 95.8844735,6.53914286 L93.0902105,6.53914286 C92.8214169,6.53914286 92.6011082,6.76028571 92.6011082,7.03457143 L92.6011082,8.80457143 L88.4977522,8.80457143 C88.2357635,8.80457143 88.0248115,9.01628571 88.0248115,9.28114286 L88.0248115,11.364 C88.0248115,11.6202857 88.2357635,11.8414286 88.4977522,11.8414286 L92.6011082,11.8414286 L92.6011082,13.134 C92.6011082,14.6382857 93.2884033,16.0697143 95.1274281,16.968 C95.8249306,17.3168571 96.6874519,17.7394286 97.6069643,18.18 C95.9729372,18.8494286 94.5285967,19.1605714 93.0025974,19.1605714 L89.1255044,19.1605714 C88.8567108,19.1605714 88.6389539,19.3722857 88.6389539,19.6465714 L88.6389539,21.702 C88.6389539,21.9762857 88.8567108,22.1974286 89.1255044,22.1974286 L92.9396521,22.1974286 C94.4639501,22.1974286 96.3276427,21.8674286 97.9089318,21.2708571 C98.5511445,21.0325714 99.7641183,20.5002857 101.156571,19.8582857 C102.551576,20.5002857 103.76455,21.0325714 104.409315,21.2708571 C105.986351,21.8674286 107.849193,22.1974286 109.376893,22.1974286 L113.188489,22.1974286 C113.458984,22.1974286 113.678442,21.9762857 113.678442,21.702 L113.678442,19.6465714 C113.678442,19.3722857 113.458984,19.1605714 113.188489,19.1605714 L109.313097,19.1605714 C107.786247,19.1605714 106.343608,18.8494286 104.70873,18.18 C105.628243,17.7394286 106.491615,17.3168571 107.189968,16.968 C109.026441,16.0697143 109.716288,14.6382857 109.716288,13.134 L109.716288,11.8414286 L113.811988,11.8414286 C114.07823,11.8414286 114.290032,11.6202857 114.290032,11.364 L114.290032,9.28114286 C114.290032,9.01628571 114.07823,8.80457143 113.811988,8.80457143 Z M105.942969,12.7585714 C105.942969,13.6122857 105.785606,14.2817143 104.714685,14.8225714 C103.854715,15.2537143 102.434192,15.9325714 101.156571,16.5385714 C99.8806522,15.9325714 98.4626808,15.2537143 97.6027113,14.8225714 C96.5326404,14.2817143 96.3744264,13.6122857 96.3744264,12.7585714 L96.3744264,11.8414286 L105.942969,11.8414286 L105.942969,12.7585714 Z M65.7362052,13.5205714 L68.9540733,13.5205714 C69.1999004,13.5205714 69.3547119,13.3182857 69.2288212,13.08 L66.0296666,6.79628571 C65.9037759,6.54857143 65.606912,6.34714286 65.2224351,6.34714286 L62.0062682,6.34714286 C61.7578893,6.34714286 61.604779,6.54857143 61.7306697,6.79628571 L64.9298243,13.08 C65.055715,13.3182857 65.3517282,13.5205714 65.7362052,13.5205714 Z M85.1310269,15.18 L74.6974107,15.18 L74.6974107,4.69542857 L84.2829659,4.69542857 C84.5449547,4.69542857 84.7593091,4.476 84.7593091,4.20942857 L84.7593091,2.18228571 C84.7593091,1.91657143 84.5449547,1.70571429 84.2829659,1.70571429 L60.9685206,1.70571429 C60.7039801,1.70571429 60.4896256,1.91657143 60.4896256,2.18228571 L60.4896256,4.20942857 C60.4896256,4.476 60.7039801,4.69542857 60.9685206,4.69542857 L70.5515241,4.69542857 L70.5515241,15.18 L60.1196091,15.18 C59.8559191,15.18 59.6441166,15.4002857 59.6441166,15.6565714 L59.6441166,17.8028571 C59.6441166,18.0694286 59.8559191,18.2811429 60.1196091,18.2811429 L70.5515241,18.2811429 L70.5515241,22.3251429 C70.5515241,22.5917143 70.7633266,22.8111429 71.0270166,22.8111429 L74.2219181,22.8111429 C74.4856081,22.8111429 74.6974107,22.5917143 74.6974107,22.3251429 L74.6974107,18.2811429 L85.1310269,18.2811429 C85.3930156,18.2811429 85.6048182,18.0694286 85.6048182,17.8028571 L85.6048182,15.6565714 C85.6048182,15.4002857 85.3930156,15.18 85.1310269,15.18 L85.1310269,15.18 Z" id="Fill-1" fill="#E36729" mask="url(#mask-2)"></path>
                    <path d="M45.9058698,29.5517143 L43.1720003,29.5517143 C42.9346794,29.5517143 42.7407397,29.7505714 42.7407397,29.9837143 L42.7407397,42.5348571 C41.3185151,40.914 31.877564,30.1337143 31.6393925,29.8748571 C31.3842086,29.6014286 31.0439635,29.5517143 30.8219536,29.5517143 L28.1195568,29.5517143 C27.8822359,29.5517143 27.6882962,29.7505714 27.6882962,29.9837143 L27.6882962,47.3262857 C27.6882962,47.568 27.8822359,47.7591429 28.1195568,47.7591429 L30.8508744,47.7591429 C31.0898966,47.7591429 31.2821351,47.568 31.2821351,47.3262857 L31.2821351,34.6662857 C32.3130778,35.8482857 42.2312226,47.1771429 42.4770497,47.4351429 C42.7322335,47.7094286 43.0707774,47.7591429 43.293638,47.7591429 L45.9058698,47.7591429 C46.1440413,47.7591429 46.3371304,47.568 46.3371304,47.3262857 L46.3371304,29.9837143 C46.3371304,29.7505714 46.1440413,29.5517143 45.9058698,29.5517143 Z M61.7077031,29.3014286 L55.4072144,29.3014286 C51.9962572,29.3014286 49.2326163,31.7802857 49.2326163,34.842 L49.2326163,42.4688571 C49.2326163,45.522 51.9962572,48 55.4072144,48 L61.7077031,48 C65.1178097,48 67.884853,45.522 67.884853,42.4688571 L67.884853,37.578 L58.3316211,37.578 L58.3316211,40.1485714 C58.3316211,40.3817143 58.5230089,40.5805714 58.7628817,40.5805714 L63.992449,40.5805714 L63.992449,44.1154286 C63.992449,44.3571429 63.7976587,44.5491429 63.5611883,44.5491429 L53.5511773,44.5491429 C53.3130057,44.5491429 53.1199166,44.3571429 53.1199166,44.1154286 L53.1199166,33.1945714 C53.1199166,32.9537143 53.3130057,32.7531429 53.5511773,32.7531429 L63.5611883,32.7531429 C63.7976587,32.7531429 63.992449,32.9537143 63.992449,33.1945714 L63.992449,35.2825714 C63.992449,35.5234286 64.1838369,35.7231429 64.4237097,35.7231429 L67.4535924,35.7231429 C67.6900627,35.7231429 67.884853,35.5234286 67.884853,35.2825714 L67.884853,34.842 C67.884853,31.7802857 65.1178097,29.3014286 61.7077031,29.3014286 Z M113.858772,29.5517143 L111.125753,29.5517143 C110.888432,29.5517143 110.694492,29.7505714 110.694492,29.9837143 L110.694492,42.5348571 C109.270567,40.914 99.8313167,30.1337143 99.5939957,29.8748571 C99.3362601,29.6014286 98.996015,29.5517143 98.774005,29.5517143 L96.0741601,29.5517143 C95.8342873,29.5517143 95.6403476,29.7505714 95.6403476,29.9837143 L95.6403476,47.3262857 C95.6403476,47.568 95.8342873,47.7591429 96.0741601,47.7591429 L98.8054777,47.7591429 C99.0427987,47.7591429 99.2367384,47.568 99.2367384,47.3262857 L99.2367384,34.6662857 C100.26683,35.8482857 110.184125,47.1771429 110.429952,47.4351429 C110.685986,47.7094286 111.02453,47.7591429 111.24654,47.7591429 L113.858772,47.7591429 C114.096943,47.7591429 114.290032,47.568 114.290032,47.3262857 L114.290032,29.9837143 C114.290032,29.7505714 114.096943,29.5517143 113.858772,29.5517143 Z M85.2968964,30.0325714 C85.1250726,29.7257143 84.8511753,29.526 84.5151832,29.526 L81.8153383,29.526 C81.477645,29.526 81.2028971,29.7257143 81.031924,30.0325714 L72.5402567,46.8857143 C72.2544508,47.4351429 72.4977261,47.7591429 73.0004382,47.7591429 L75.6909264,47.7591429 C76.0822083,47.7591429 76.2302149,47.6511429 76.427557,47.2774286 L83.1627089,33.7191429 L89.9004127,47.2774286 C90.099456,47.6511429 90.2457614,47.7591429 90.6370433,47.7591429 L93.3292327,47.7591429 C93.8302436,47.7591429 94.0735189,47.4351429 93.7894142,46.8857143 L85.2968964,30.0325714 Z M13.608103,38.568 C13.608103,38.8088571 13.4158645,39.0008571 13.1768424,39.0008571 L3.94088895,39.0008571 L3.94088895,32.7617143 L13.1768424,32.7617143 C13.4158645,32.7617143 13.608103,32.9537143 13.608103,33.1945714 L13.608103,38.568 Z M11.552172,29.5517143 L0.429559447,29.5517143 C0.193939711,29.5517143 0,29.7505714 0,29.9837143 L0,47.3262857 C0,47.568 0.193939711,47.7591429 0.429559447,47.7591429 L3.50962827,47.7591429 C3.74950107,47.7591429 3.94088895,47.568 3.94088895,47.3262857 L3.94088895,42.2117143 L11.552172,42.2117143 C14.965681,42.2117143 17.7293219,40.1811429 17.7293219,37.1211429 L17.7293219,35.0905714 C17.7293219,32.0297143 14.965681,29.5517143 11.552172,29.5517143 Z M23.8537338,29.5517143 L20.8059883,29.5517143 C20.5661155,29.5517143 20.3747276,29.7505714 20.3747276,29.9837143 L20.3747276,47.3262857 C20.3747276,47.568 20.5661155,47.7591429 20.8059883,47.7591429 L23.8537338,47.7591429 C24.0910548,47.7591429 24.2849945,47.568 24.2849945,47.3262857 L24.2849945,29.9837143 C24.2849945,29.7505714 24.0910548,29.5517143 23.8537338,29.5517143 L23.8537338,29.5517143 Z" id="Fill-3" fill="#E36729" mask="url(#mask-2)"></path>
                </g>
                <path d="M85.4823299,42.3188571 L80.8456398,42.3188571 C80.6083188,42.3188571 80.4143791,42.5108571 80.4143791,42.7508571 L80.4143791,47.3185714 C80.4143791,47.5594286 80.6083188,47.7505714 80.8456398,47.7505714 L85.4823299,47.7505714 C85.7222027,47.7505714 85.9135906,47.5594286 85.9135906,47.3185714 L85.9135906,42.7508571 C85.9135906,42.5108571 85.7222027,42.3188571 85.4823299,42.3188571" id="Fill-5" fill="#17593D"></path>
            </g>
        </g>
    </g>
</svg>